[ { "id" : "718e4c84-c29a-9f56-f7093a4259fbd83a",
    "ingredientId" : "e01cac82-90ba-4267-8201-4d4d16332fb4",
    "searchValue" : "salt",
    "term" : "salt",
    "useCount" : 965272
  },
  { "id" : "71b8741a-c29a-9f56-f9c429e1403efb00",
    "ingredientId" : "7b65b577-7114-49a7-9d4a-e5693ee3cfb3",
    "searchValue" : "sugar",
    "term" : "sugar",
    "useCount" : 444100
  },
  { "id" : "71bc6331-bcf3-4aeb-f030baa86cdd2327",
    "ingredientId" : "9ed78948-13d2-4a5f-9089-1685267e675c",
    "searchValue" : "butter",
    "term" : "butter",
    "useCount" : 359882
  },
  { "id" : "71b70e8e-c29a-9f56-f1933ea67ee267cd",
    "ingredientId" : "30b7a1fc-9c68-43e8-8bf8-1a0d83aa1788",
    "searchValue" : "black pepper",
    "term" : "black pepper",
    "useCount" : 355591
  },
  { "id" : "thes-707",
    "ingredientId" : "ba86101e-fdac-43f7-8c92-474e5d02ef2d",
    "searchValue" : "onion",
    "term" : "onion",
    "useCount" : 328393
  },
  { "id" : "718e367b-c29a-9f56-fce4e6658c9058d2",
    "ingredientId" : "7f618abd-9024-4c59-865c-06909f41f5d1",
    "searchValue" : "eggs",
    "term" : "eggs",
    "useCount" : 316445
  },
  { "id" : "71b70b0d-066b-4335-ff8787430d545654",
    "ingredientId" : "b1909762-5b34-4a14-87d0-a3f96cc882d5",
    "searchValue" : "all-purpose flour",
    "term" : "all-purpose flour",
    "useCount" : 310361
  },
  { "id" : "71b6abec-a23c-af29-d102c137fa15ca1c",
    "ingredientId" : "6ec4f660-96d8-45ac-a747-8bbf8e696872",
    "searchValue" : "water",
    "term" : "water",
    "useCount" : 310139
  },
  { "id" : "thes-537",
    "ingredientId" : "380ccb3f-bd69-4971-a9ae-0a68768fa275",
    "searchValue" : "olive oil",
    "term" : "olive oil",
    "useCount" : 295265
  },
  { "id" : "718e44e2-c29a-9f56-f377e29d323f1002",
    "ingredientId" : "a9aea9f5-5057-40ac-b86e-464ac626c574",
    "searchValue" : "pepper",
    "term" : "pepper",
    "useCount" : 265758
  },
  { "id" : "71b3c9b4-c29a-9f56-f81196ae9bc5964c",
    "ingredientId" : "82602ecc-2151-4177-8392-dea09a2fd3ba",
    "searchValue" : "milk",
    "term" : "milk",
    "useCount" : 225368
  },
  { "id" : "thes-541",
    "ingredientId" : "797b9b50-252b-4440-8fa9-4a71519c8d6a",
    "searchValue" : "garlic cloves",
    "term" : "garlic cloves",
    "useCount" : 219432
  },
  { "id" : "71bc6407-0e27-4d12-9f011d27d511044b",
    "ingredientId" : "aaa15a2f-1a51-452b-b18e-957b29b49da4",
    "searchValue" : "unsalted butter",
    "term" : "unsalted butter",
    "useCount" : 151895
  },
  { "id" : "71bca0f5-01d1-6006-93a402c7521ff423",
    "ingredientId" : "ab771b6c-d832-44c3-84c9-c10250e6946c",
    "searchValue" : "vegetable oil",
    "term" : "vegetable oil",
    "useCount" : 149907
  },
  { "id" : "thes-3200",
    "ingredientId" : "6ea1b4fd-e6a0-4eec-ae75-2bba261ae482",
    "searchValue" : "extra-virgin olive oil",
    "term" : "extra-virgin olive oil",
    "useCount" : 144997
  },
  { "id" : "71b85036-c29a-9f56-fdd73deb2b709035",
    "ingredientId" : "12c66a3e-7929-470e-9745-18f85aeec82f",
    "searchValue" : "brown sugar",
    "term" : "brown sugar",
    "useCount" : 141390
  },
  { "id" : "71bc00d8-bc83-30c4-14be0e529e186d2c",
    "ingredientId" : "db450cf3-cbea-4f8c-a57e-d4b628208594",
    "searchValue" : "baking powder",
    "term" : "baking powder",
    "useCount" : 141378
  },
  { "id" : "71b3ae9a-c29a-9f56-f1b0cb8247932bdc",
    "ingredientId" : "657ff16c-114f-49e3-a673-e48e5a163ab8",
    "searchValue" : "lemon juice",
    "term" : "lemon juice",
    "useCount" : 134487
  },
  { "id" : "71b7fbcd-c29a-9f56-f2dfa968c851f060",
    "ingredientId" : "b01401b4-f649-49cf-b0d1-65cb4811900e",
    "searchValue" : "vanilla extract",
    "term" : "vanilla extract",
    "useCount" : 131020
  },
  { "id" : "thes-549",
    "ingredientId" : "13a4c89d-ea52-4041-8132-9d22679242b8",
    "searchValue" : "freshly ground pepper",
    "term" : "freshly ground pepper",
    "useCount" : 124156
  },
  { "id" : "thes-711",
    "ingredientId" : "a67dad12-3b69-41e6-9c1d-64bbbe13b43c",
    "searchValue" : "carrots",
    "term" : "carrots",
    "useCount" : 118728
  },
  { "id" : "thes-550",
    "ingredientId" : "f5d8c53e-471d-4ebe-aa9a-149b44099fa4",
    "searchValue" : "cloves garlic",
    "term" : "cloves garlic",
    "useCount" : 116167
  },
  { "id" : "71e0f59e-c29a-9f56-f75e7e2db460b99f",
    "ingredientId" : "16af4dac-5399-4ec8-8c74-fa10ee05b949",
    "searchValue" : "flour",
    "term" : "flour",
    "useCount" : 113838
  },
  { "id" : "71bc0299-9a82-53ec-da2874bedee5b4e9",
    "ingredientId" : "4ae327cb-546b-4c9c-9b07-eef7b0d2bc47",
    "searchValue" : "baking soda",
    "term" : "baking soda",
    "useCount" : 113724
  },
  { "id" : "718e0d58-c29a-9f56-ffac25c81020d839",
    "ingredientId" : "8fd6ee7d-56ae-4055-8920-22da5d5cbe9f",
    "searchValue" : "tomatoes",
    "term" : "tomatoes",
    "useCount" : 108579
  },
  { "id" : "71b81560-c29a-9f56-fdd14bfb20e1ec1f",
    "ingredientId" : "a79b41e6-8a44-47fa-a016-54cf4cae1fbe",
    "searchValue" : "kosher salt",
    "term" : "kosher salt",
    "useCount" : 102904
  },
  { "id" : "thes-553",
    "ingredientId" : "c4eea52f-0fce-4d55-87a2-3a602a4777b0",
    "searchValue" : "ground cinnamon",
    "term" : "ground cinnamon",
    "useCount" : 102384
  },
  { "id" : "thes-713",
    "ingredientId" : "0bfbf46d-240e-44e7-acb1-75db5af45d4b",
    "searchValue" : "green onions",
    "term" : "green onions",
    "useCount" : 98556
  },
  { "id" : "thes-548",
    "ingredientId" : "2ea89351-aab1-472d-82ec-f6a0c7ef61af",
    "searchValue" : "large eggs",
    "term" : "large eggs",
    "useCount" : 97281
  },
  { "id" : "thes-1358",
    "ingredientId" : "2fbfa719-d8d3-49b1-bc23-c234be13e25b",
    "searchValue" : "vanilla",
    "term" : "vanilla",
    "useCount" : 96624
  },
  { "id" : "71b40a76-c29a-9f56-f43f41f95d83dfaf",
    "ingredientId" : "57699440-59a8-44ea-9bdf-c52a31e1d19f",
    "searchValue" : "sour cream",
    "term" : "sour cream",
    "useCount" : 90201
  },
  { "id" : "71b89f6f-c29a-9f56-fb5cd5d1c031b013",
    "ingredientId" : "d2f845d7-f7b0-44f7-b541-3b5f3209c6dc",
    "searchValue" : "honey",
    "term" : "honey",
    "useCount" : 87423
  },
  { "id" : "71b4699d-c29a-9f56-f5ebebe3bd577518",
    "ingredientId" : "cca58309-c81e-46ed-a9a3-62eeb8e39666",
    "searchValue" : "cream cheese",
    "term" : "cream cheese",
    "useCount" : 82268
  },
  { "id" : "71b83e06-c29a-9f56-f4f959432455b85e",
    "ingredientId" : "ddf08f37-fb8d-4e14-a868-67e58f68eee1",
    "searchValue" : "granulated sugar",
    "term" : "granulated sugar",
    "useCount" : 80795
  },
  { "id" : "71acdbd6-c29a-9f56-fd6943e530bf5167",
    "ingredientId" : "4008cff6-ad70-498b-a74b-e5e44045ea8b",
    "searchValue" : "red onion",
    "term" : "red onion",
    "useCount" : 77610
  },
  { "id" : "71b6923b-cd42-dce6-56e9a0eda12cea3d",
    "ingredientId" : "84d88c20-d72e-4500-ba75-a94c419c58e1",
    "searchValue" : "chicken broth",
    "term" : "chicken broth",
    "useCount" : 75600
  },
  { "id" : "thes-554",
    "ingredientId" : "6b5d056a-9c64-4d67-9ce0-d1ca003bf0c5",
    "searchValue" : "fresh parsley",
    "term" : "fresh parsley",
    "useCount" : 74527
  },
  { "id" : "71ad1bae-c29a-9f56-ff148aec6d7ff47e",
    "ingredientId" : "b804dccb-fed6-4d1d-aeed-98344a6ff62d",
    "searchValue" : "garlic powder",
    "term" : "garlic powder",
    "useCount" : 74143
  },
  { "id" : "71b77420-ce77-a959-80acce3c2721af38",
    "ingredientId" : "694549c9-45c4-469a-a810-052312f2d7a7",
    "searchValue" : "cornstarch",
    "term" : "cornstarch",
    "useCount" : 73823
  },
  { "id" : "71bc99e1-9437-e6c1-656e5a5d2700e2cc",
    "ingredientId" : "4c5092dd-1a17-4b84-9ec9-4927bda2a4c7",
    "searchValue" : "oil",
    "term" : "oil",
    "useCount" : 71617
  },
  { "id" : "thes-562",
    "ingredientId" : "492229c5-247b-4de8-9379-b561f10f53df",
    "searchValue" : "grated parmesan cheese",
    "term" : "grated parmesan cheese",
    "useCount" : 70398
  },
  { "id" : "thes-542",
    "ingredientId" : "36a8a5ad-43f3-4858-8101-4adeb0b14a39",
    "searchValue" : "minced garlic",
    "term" : "minced garlic",
    "useCount" : 67767
  },
  { "id" : "71b87850-c29a-9f56-f97e178ededac7ab",
    "ingredientId" : "0e0526a5-9830-40d0-8b13-5616c704572f",
    "searchValue" : "white sugar",
    "term" : "white sugar",
    "useCount" : 67547
  },
  { "id" : "71b6501b-ba6e-0a30-a73341b92b11f22d",
    "ingredientId" : "125afe2b-5fe3-4023-945f-3f598f5db8d8",
    "searchValue" : "mayonnaise",
    "term" : "mayonnaise",
    "useCount" : 66203
  },
  { "id" : "thes-561",
    "ingredientId" : "b9884fd2-1e6f-4835-96a2-cb25ce9f5721",
    "searchValue" : "ground cumin",
    "term" : "ground cumin",
    "useCount" : 64592
  },
  { "id" : "71b6491f-97ea-feaf-d79ce26e3d75b867",
    "ingredientId" : "d938bb99-099a-4f7a-9a8f-7dcf3622b606",
    "searchValue" : "soy sauce",
    "term" : "soy sauce",
    "useCount" : 63937
  },
  { "id" : "thes-547",
    "ingredientId" : "69a4d3b6-1215-4693-9ca6-36899ca0f197",
    "searchValue" : "fresh lemon juice",
    "term" : "fresh lemon juice",
    "useCount" : 63780
  },
  { "id" : "71b3c8d9-c29a-9f56-ff6b5fae2187466a",
    "ingredientId" : "11ded23f-872c-4cee-bce3-1774d192eed1",
    "searchValue" : "heavy cream",
    "term" : "heavy cream",
    "useCount" : 62244
  },
  { "id" : "71b6f0a6-c29a-9f56-fc21e3a7ada1fa7a",
    "ingredientId" : "9a19795b-1f34-4a99-bdd9-2d74c1e03fbe",
    "searchValue" : "cinnamon",
    "term" : "cinnamon",
    "useCount" : 61749
  },
  { "id" : "71bc6bdc-0f27-a339-c0152987e9bbfa6f",
    "ingredientId" : "ce571328-41f6-46cb-9e8c-2ceb4a92d1a9",
    "searchValue" : "margarine",
    "term" : "margarine",
    "useCount" : 60978
  },
  { "id" : "71aa2551-c29a-9f56-f38045c193c0d3c5",
    "ingredientId" : "66a24b4c-f2f3-4e83-ad21-c4b4e4d10024",
    "searchValue" : "celery",
    "term" : "celery",
    "useCount" : 59525
  },
  { "id" : "71b68308-c29a-9f56-fed35ae0f2c3925d",
    "ingredientId" : "2a792b66-e07c-4297-afd5-58ea834901f9",
    "searchValue" : "paprika",
    "term" : "paprika",
    "useCount" : 58680
  },
  { "id" : "thes-717",
    "ingredientId" : "97a65ff4-64df-40be-957c-d1979fd8b066",
    "searchValue" : "shallots",
    "term" : "shallots",
    "useCount" : 58364
  },
  { "id" : "thes-563",
    "ingredientId" : "ad748603-3297-4685-b296-afecaa93d430",
    "searchValue" : "fresh cilantro",
    "term" : "fresh cilantro",
    "useCount" : 57473
  },
  { "id" : "718e00d5-c29a-9f56-f5451981d2d0658a",
    "ingredientId" : "be0f4e42-c781-4532-ae20-fac71065e641",
    "searchValue" : "potatoes",
    "term" : "potatoes",
    "useCount" : 57132
  },
  { "id" : "71b69315-c29a-9f56-f6b835e8cc8eede5",
    "ingredientId" : "ddb461e6-6fd9-42dc-bc5a-afc1b278de05",
    "searchValue" : "chili powder",
    "term" : "chili powder",
    "useCount" : 56508
  },
  { "id" : "71b652c7-cd2c-abb5-3ceb33f2a6126f98",
    "ingredientId" : "99c797fa-fce6-4182-a230-f2872db9180c",
    "searchValue" : "worcestershire sauce",
    "term" : "worcestershire sauce",
    "useCount" : 54276
  },
  { "id" : "thes-570",
    "ingredientId" : "10d190d7-2f93-4822-829f-bd8df8064a31",
    "searchValue" : "red bell pepper",
    "term" : "red bell pepper",
    "useCount" : 53567
  },
  { "id" : "71bc8b9d-0ef7-f421-05f97cc25442eb41",
    "ingredientId" : "301e6697-0cca-43b1-8b82-6867b89a8d0a",
    "searchValue" : "canola oil",
    "term" : "canola oil",
    "useCount" : 53453
  },
  { "id" : "71b637a0-cca8-2f78-e9144d0225e7aebb",
    "ingredientId" : "f5c36102-347d-4912-a77e-9f4cbba14bb1",
    "searchValue" : "dijon mustard",
    "term" : "dijon mustard",
    "useCount" : 53070
  },
  { "id" : "thes-580",
    "ingredientId" : "40dee730-a7fa-4335-bf36-9e6ca407f96f",
    "searchValue" : "egg whites",
    "term" : "egg whites",
    "useCount" : 52564
  },
  { "id" : "718e946a-c29a-9f56-f68121fc37c52b6d",
    "ingredientId" : "f605545d-78b5-4031-a19c-09e6e5e7d2ee",
    "searchValue" : "bacon",
    "term" : "bacon",
    "useCount" : 51657
  },
  { "id" : "71b849cd-c29a-9f56-ff429788fdcba2c1",
    "ingredientId" : "92fe8336-b66b-4c61-94a3-e84a6d5f8804",
    "searchValue" : "powdered sugar",
    "term" : "powdered sugar",
    "useCount" : 51423
  },
  { "id" : "71afc1a8-c29a-9f56-f691cf5030afd895",
    "ingredientId" : "13a1c71d-5174-435e-9f77-511a21bf2072",
    "searchValue" : "lemon",
    "term" : "lemon",
    "useCount" : 50345
  },
  { "id" : "71b3b0fc-c29a-9f56-f3d55249b8fe1556",
    "ingredientId" : "263a88a2-ee54-44f7-ae38-8cdf63c3f3e8",
    "searchValue" : "orange juice",
    "term" : "orange juice",
    "useCount" : 49723
  },
  { "id" : "thes-573",
    "ingredientId" : "d5bd4468-375f-49df-b491-a0d32405fd9a",
    "searchValue" : "dried oregano",
    "term" : "dried oregano",
    "useCount" : 49272
  },
  { "id" : "thes-720",
    "ingredientId" : "441f1499-a2a6-4e0f-bca9-746a468e7343",
    "searchValue" : "scallions",
    "term" : "scallions",
    "useCount" : 49204
  },
  { "id" : "thes-600",
    "ingredientId" : "d8c04f92-826d-49a6-9efa-7b5e705c970c",
    "searchValue" : "shredded cheddar cheese",
    "term" : "shredded cheddar cheese",
    "useCount" : 47829
  },
  { "id" : "71bc9589-dbcd-cd6a-d56408b29ca30f07",
    "ingredientId" : "332bfee2-57b2-43d7-9ade-ecc8875420ce",
    "searchValue" : "cooking spray",
    "term" : "cooking spray",
    "useCount" : 47811
  },
  { "id" : "71af2374-c29a-9f56-f68455cc9bc5f642",
    "ingredientId" : "c2cdf87b-b25f-4d2d-ac0d-95e0ee1b14f2",
    "searchValue" : "cayenne pepper",
    "term" : "cayenne pepper",
    "useCount" : 46373
  },
  { "id" : "thes-180",
    "ingredientId" : "1b954759-e99d-4cdf-bfad-4abf04e84177",
    "searchValue" : "ground beef",
    "term" : "ground beef",
    "useCount" : 45552
  },
  { "id" : "71b8164a-c29a-9f56-f814cabdd989ca9d",
    "ingredientId" : "fb35aad9-01c2-4f41-a448-5fa4c0c8cce6",
    "searchValue" : "sea salt",
    "term" : "sea salt",
    "useCount" : 45416
  },
  { "id" : "71b9a0be-9324-ae13-e27375eb5a66f737",
    "ingredientId" : "dab61aec-1a57-43b6-b4dc-86d27cc38736",
    "searchValue" : "shrimp",
    "term" : "shrimp",
    "useCount" : 45177
  },
  { "id" : "thes-601",
    "ingredientId" : "bd56e9e7-f374-4166-8473-cdfa81beeb08",
    "searchValue" : "diced tomatoes",
    "term" : "diced tomatoes",
    "useCount" : 43850
  },
  { "id" : "thes-727",
    "ingredientId" : "5f1f94e1-e2b6-4a0e-88ee-324808acd4e3",
    "searchValue" : "strawberries",
    "term" : "strawberries",
    "useCount" : 43836
  },
  { "id" : "thes-582",
    "ingredientId" : "c8fdd702-3ae2-4218-bc38-68f2176da25b",
    "searchValue" : "melted butter",
    "term" : "melted butter",
    "useCount" : 43832
  },
  { "id" : "71adc3b5-c29a-9f56-f95895bdd53b89d9",
    "ingredientId" : "6c8f1663-8202-40fa-b440-f0a9c432a1c7",
    "searchValue" : "spinach",
    "term" : "spinach",
    "useCount" : 43168
  },
  { "id" : "thes-584",
    "ingredientId" : "769a72e6-f18b-43a5-b63d-06e584a91a43",
    "searchValue" : "ground nutmeg",
    "term" : "ground nutmeg",
    "useCount" : 42613
  },
  { "id" : "71aec892-c29a-9f56-f73dff58c42e2d53",
    "ingredientId" : "4be8deaa-efee-4f2b-97f3-f9c491ff6577",
    "searchValue" : "zucchini",
    "term" : "zucchini",
    "useCount" : 42126
  },
  { "id" : "thes-719",
    "ingredientId" : "38955877-9b53-4543-b12e-9e3126799c7f",
    "searchValue" : "egg yolks",
    "term" : "egg yolks",
    "useCount" : 41320
  },
  { "id" : "thes-565",
    "ingredientId" : "6f804ade-dcb0-484d-a5f7-d41bfbc9b868",
    "searchValue" : "fresh basil",
    "term" : "fresh basil",
    "useCount" : 41157
  },
  { "id" : "718e04fb-c29a-9f56-f156bcd4af8c64fe",
    "ingredientId" : "d7adf64b-389a-466a-bb19-e4d8b9dabd26",
    "searchValue" : "garlic",
    "term" : "garlic",
    "useCount" : 40889
  },
  { "id" : "thes-568",
    "ingredientId" : "c174e6e3-278d-4019-8598-56ee516cca77",
    "searchValue" : "dry white wine",
    "term" : "dry white wine",
    "useCount" : 38751
  },
  { "id" : "71b664ed-b8fa-b933-327d6396faca52a4",
    "ingredientId" : "f178575b-e25b-4239-b8d1-5775eea0a496",
    "searchValue" : "balsamic vinegar",
    "term" : "balsamic vinegar",
    "useCount" : 38743
  },
  { "id" : "71b547c8-c29a-9f56-f84dd6ac119ce09a",
    "ingredientId" : "f21af9c1-7c19-42f1-9481-c25488c43047",
    "searchValue" : "parmesan cheese",
    "term" : "parmesan cheese",
    "useCount" : 38431
  },
  { "id" : "thes-3506",
    "ingredientId" : "bd6fefa9-96cd-4ab0-a191-f5983b8a4c2d",
    "searchValue" : "juice",
    "term" : "juice",
    "useCount" : 38344
  },
  { "id" : "718e1fa7-c29a-9f56-f9a5d2bf97ac829a",
    "ingredientId" : "b56491a3-0a75-420b-ade8-1a26d736d4d2",
    "searchValue" : "apples",
    "term" : "apples",
    "useCount" : 38299
  },
  { "id" : "thes-588",
    "ingredientId" : "b90ccb2a-636d-4fed-8c75-9e72abacf550",
    "searchValue" : "chopped walnuts",
    "term" : "chopped walnuts",
    "useCount" : 38126
  },
  { "id" : "71b685b7-c29a-9f56-f88b09cf8a9e1ffc",
    "ingredientId" : "4f3e04e0-8794-4991-b2d3-64a9fe82afd3",
    "searchValue" : "ground ginger",
    "term" : "ground ginger",
    "useCount" : 37727
  },
  { "id" : "71b8c21a-c29a-9f56-ff887d7a4b3fe415",
    "ingredientId" : "736d3cec-e137-4a1c-be0d-99ae403a582f",
    "searchValue" : "semisweet chocolate",
    "term" : "semisweet chocolate",
    "useCount" : 37422
  },
  { "id" : "thes-594",
    "ingredientId" : "9ce8e4dc-8c13-4000-8541-edd9b38aadb4",
    "searchValue" : "chopped pecans",
    "term" : "chopped pecans",
    "useCount" : 37376
  },
  { "id" : "71b69286-bd15-0afb-31ef36edbb94faea",
    "ingredientId" : "dafda3d1-972e-48bd-8a24-8dfd6de8b85b",
    "searchValue" : "chicken stock",
    "term" : "chicken stock",
    "useCount" : 37227
  },
  { "id" : "71b3fa69-c29a-9f56-f003fcf942646df1",
    "ingredientId" : "449dceb0-4e89-49c0-be70-732914b402bd",
    "searchValue" : "buttermilk",
    "term" : "buttermilk",
    "useCount" : 37017
  },
  { "id" : "71b87a50-d7d2-58b7-7faa75b1bcf72ab9",
    "ingredientId" : "08f6c72e-a385-411a-b025-c02e3f22c294",
    "searchValue" : "chicken",
    "term" : "chicken",
    "useCount" : 36923
  },
  { "id" : "71ad36e6-c29a-9f56-f7178144dd50838f",
    "ingredientId" : "548e0c0b-75dd-426d-abe8-acbfc26c4438",
    "searchValue" : "fresh ginger",
    "term" : "fresh ginger",
    "useCount" : 36794
  },
  { "id" : "71b83fdb-c29a-9f56-f4b4dba345ea4965",
    "ingredientId" : "43baae1c-0444-41ba-9383-c4ef0839d345",
    "searchValue" : "light brown sugar",
    "term" : "light brown sugar",
    "useCount" : 36726
  },
  { "id" : "71b3b021-c29a-9f56-f0fedf4eb12edbdc",
    "ingredientId" : "cae9bfec-dcec-4b61-a93f-e41a0cc9bc5d",
    "searchValue" : "lime juice",
    "term" : "lime juice",
    "useCount" : 36426
  },
  { "id" : "71b6a797-c29a-9f56-ff1e189ac898888d",
    "ingredientId" : "1c4bae07-74d0-4a9e-a198-e073d4329c3f",
    "searchValue" : "red pepper",
    "term" : "red pepper",
    "useCount" : 36249
  },
  { "id" : "thes-583",
    "ingredientId" : "1ef7b7fe-b96e-4cb9-a811-3d55ff848e34",
    "searchValue" : "chicken breasts",
    "term" : "chicken breasts",
    "useCount" : 36101
  },
  { "id" : "71b24798-c29a-9f56-ff49dccf757b4793",
    "ingredientId" : "a85a06ce-ae0f-434a-ba43-276b1a03d500",
    "searchValue" : "raisins",
    "term" : "raisins",
    "useCount" : 35825
  }
]